<?xml version="1.0" encoding="UTF-8"?>
<svg width="21px" height="37px" viewBox="0 0 21 37" version="1.1" xmlns="http://www.w3.org/2000/svg" xmlns:xlink="http://www.w3.org/1999/xlink">
    <!-- Generator: Sketch 49.1 (51147) - http://www.bohemiancoding.com/sketch -->
    <title>left</title>
    <desc>Created with Sketch.</desc>
    <defs></defs>
    <g id="Page-1" stroke="none" stroke-width="1" fill="none" fill-rule="evenodd">
        <g id="Full-Prewiew" transform="translate(-1176.000000, -2905.000000)" fill="#C6C6C6" stroke="#C6C6C6">
            <g id="left" transform="translate(1177.000000, 2906.000000)">
                <g id="003-left-arrow">
                    <path d="M16.768254,34.491453 C17.0095238,34.7307692 17.3111111,34.8504274 17.6428571,34.8504274 C17.9746032,34.8504274 18.2761905,34.7307692 18.5174603,34.491453 C19,34.0128205 19,33.2350427 18.5174603,32.7564103 L3.13650794,17.5 L18.5174603,2.24358974 C19,1.76495726 19,0.987179487 18.5174603,0.508547009 C18.0349206,0.0299145299 17.2507937,0.0299145299 16.768254,0.508547009 L0.482539683,16.6324786 C1.62370117e-15,17.1111111 1.62370117e-15,17.8888889 0.482539683,18.3675214 L16.768254,34.491453 Z" id="Shape" fill-rule="nonzero"></path>
                </g>
            </g>
        </g>
    </g>
</svg>