<?xml version="1.0" encoding="utf-8"?>
<!-- Generator: Adobe Illustrator 22.1.0, SVG Export Plug-In . SVG Version: 6.00 Build 0)  -->
<svg version="1.1" id="Layer_1" xmlns="http://www.w3.org/2000/svg" xmlns:xlink="http://www.w3.org/1999/xlink" x="0px" y="0px"
	 viewBox="0 0 45 40" style="enable-background:new 0 0 45 40;" xml:space="preserve">
<style type="text/css">
	.st0{fill:#FF5757;}
</style>
<path class="st0" d="M41.7,4c-2.2-2.5-5.3-3.9-8.7-3.9c-4.7,0-7.7,2.8-9.4,5.2c-0.4,0.6-0.8,1.2-1.1,1.8c-0.3-0.6-0.7-1.2-1.1-1.8
	c-1.7-2.4-4.7-5.2-9.4-5.2C8.6,0.1,5.5,1.5,3.3,4C1.2,6.4,0,9.6,0,13.1c0,3.8,1.5,7.2,4.6,11c2.8,3.3,6.8,6.8,11.5,10.8
	c1.7,1.5,3.5,3,5.5,4.7l0.1,0.1c0.2,0.2,0.6,0.3,0.9,0.3s0.6-0.1,0.9-0.3l0.1-0.1c1.9-1.7,3.7-3.2,5.5-4.7c4.7-4,8.7-7.4,11.5-10.8
	c3.1-3.7,4.6-7.2,4.6-11C45,9.6,43.8,6.4,41.7,4z"/>
</svg>
