<?xml version="1.0" encoding="UTF-8"?>
<svg width="21px" height="37px" viewBox="0 0 21 37" version="1.1" xmlns="http://www.w3.org/2000/svg" xmlns:xlink="http://www.w3.org/1999/xlink">
    <!-- Generator: Sketch 49.1 (51147) - http://www.bohemiancoding.com/sketch -->
    <title>right</title>
    <desc>Created with Sketch.</desc>
    <defs></defs>
    <g id="Page-1" stroke="none" stroke-width="1" fill="none" fill-rule="evenodd">
        <g id="Full-Prewiew" transform="translate(-1105.000000, -2905.000000)" fill="#C6C6C6" stroke="#C6C6C6">
            <g id="right" transform="translate(1106.000000, 2906.000000)">
                <g id="004-right-arrow">
                    <path d="M2.23174603,34.491453 C1.99047619,34.7307692 1.68888889,34.8504274 1.35714286,34.8504274 C1.02539683,34.8504274 0.723809524,34.7307692 0.482539683,34.491453 C-4.71844785e-16,34.0128205 -4.71844785e-16,33.2350427 0.482539683,32.7564103 L15.8634921,17.5 L0.482539683,2.24358974 C-2.6229019e-15,1.76495726 -2.6229019e-15,0.987179487 0.482539683,0.508547009 C0.965079365,0.0299145299 1.74920635,0.0299145299 2.23174603,0.508547009 L18.4873016,16.6324786 C18.9698413,17.1111111 18.9698413,17.8888889 18.4873016,18.3675214 L2.23174603,34.491453 Z" id="Shape" fill-rule="nonzero"></path>
                </g>
            </g>
        </g>
    </g>
</svg>