<?xml version="1.0" encoding="UTF-8"?>
<svg width="45px" height="45px" viewBox="0 0 45 45" version="1.1" xmlns="http://www.w3.org/2000/svg" xmlns:xlink="http://www.w3.org/1999/xlink">
    <!-- Generator: Sketch 49.1 (51147) - http://www.bohemiancoding.com/sketch -->
    <title>search</title>
    <desc>Created with Sketch.</desc>
    <defs></defs>
    <g id="Page-1" stroke="none" stroke-width="1" fill="none" fill-rule="evenodd">
        <g id="Full-Prewiew" transform="translate(-531.000000, -2901.000000)" fill="#C6C6C6">
            <g id="search" transform="translate(531.000000, 2901.000000)">
                <g id="005-magnifying-glass">
                    <path d="M44.4489796,41.8040816 L33.6306122,30.9857143 C36.3122449,27.7163265 37.9285714,23.5285714 37.9285714,18.9642857 C37.9285714,8.49489796 29.4336735,0 18.9642857,0 C8.48571429,0 0,8.49489796 0,18.9642857 C0,29.4336735 8.48571429,37.9285714 18.9642857,37.9285714 C23.5285714,37.9285714 27.7071429,36.3214286 30.9765306,33.6397959 L41.794898,44.4489796 C42.5295918,45.1836735 43.7142857,45.1836735 44.4489796,44.4489796 C45.1836735,43.7234694 45.1836735,42.5295918 44.4489796,41.8040816 Z M18.9642857,34.1540816 C10.5795918,34.1540816 3.76530612,27.3397959 3.76530612,18.9642857 C3.76530612,10.5887755 10.5795918,3.76530612 18.9642857,3.76530612 C27.3397959,3.76530612 34.1632653,10.5887755 34.1632653,18.9642857 C34.1632653,27.3397959 27.3397959,34.1540816 18.9642857,34.1540816 Z" id="Shape" fill-rule="nonzero"></path>
                </g>
            </g>
        </g>
    </g>
</svg>